{
  "name": "Gruvbox Material Light",
  "type": "light",
  "semanticHighlighting": true,
  "semanticTokenColors": {
    "operatorOverload": "#c35e0a",
    "memberOperatorOverload": "#c35e0a",
    "variable.defaultLibrary:javascript": "#45707a",
    "property.defaultLibrary:javascript": "#45707a",
    "variable.defaultLibrary:javascriptreact": "#45707a",
    "property.defaultLibrary:javascriptreact": "#45707a",
    "class:typescript": "#4c7a5d",
    "interface:typescript": "#4c7a5d",
    "enum:typescript": "#45707a",
    "enumMember:typescript": "#945e80",
    "namespace:typescript": "#45707a",
    "variable.defaultLibrary:typescript": "#45707a",
    "property.defaultLibrary:typescript": "#45707a",
    "class:typescriptreact": "#4c7a5d",
    "interface:typescriptreact": "#4c7a5d",
    "enum:typescriptreact": "#45707a",
    "enumMember:typescriptreact": "#945e80",
    "namespace:typescriptreact": "#45707a",
    "variable.defaultLibrary:typescriptreact": "#45707a",
    "property.defaultLibrary:typescriptreact": "#45707a",
    "intrinsic:python": "#45707a",
    "module:python": "#945e80",
    "class:python": "#4c7a5d",
    "macro:rust": "#4c7a5d",
    "namespace:rust": "#45707a",
    "selfKeyword:rust": "#45707a"
  },
  "colors": {
    "foreground": "#7c6f64",
    "focusBorder": "#e0cfa900",
    "widget.shadow": "#3c383620",
    "selection.background": "#d5c4a1b0",
    "errorForeground": "#c14a4a",
    "icon.foreground": "#4c7a5d",
    "textLink.foreground": "#748420",
    "textLink.activeForeground": "#a9b665",
    "textCodeBlock.background": "#f2e5bc",
    "textBlockQuote.background": "#f2e5bc",
    "textBlockQuote.border": "#7c6f64",
    "button.background": "#7c6f64",
    "button.hoverBackground": "#928374",
    "button.foreground": "#fdf5d6",
    "button.secondaryBackground": "#ebdbb2",
    "button.secondaryForeground": "#654735",
    "button.secondaryHoverBackground": "#e0cfa9",
    "checkbox.background": "#fdf5d6",
    "checkbox.foreground": "#c35e0a",
    "checkbox.border": "#c9b99a",
    "dropdown.border": "#e0cfa9",
    "dropdown.background": "#fdf5d6",
    "dropdown.foreground": "#7c6f64",
    "input.border": "#e0cfa9",
    "input.background": "#fdf5d600",
    "input.foreground": "#654735",
    "input.placeholderForeground": "#a89984",
    "inputOption.activeBorder": "#4c7a5d",
    "inputValidation.errorBorder": "#c14a4a",
    "inputValidation.errorBackground": "#ea6962",
    "inputValidation.errorForeground": "#654735",
    "inputValidation.infoBorder": "#945e80",
    "inputValidation.infoBackground": "#7daea3",
    "inputValidation.infoForeground": "#654735",
    "inputValidation.warningBorder": "#c88d14",
    "inputValidation.warningBackground": "#d8a657",
    "inputValidation.warningForeground": "#654735",
    "scrollbar.shadow": "#3c383620",
    "scrollbarSlider.activeBackground": "#7c6f64",
    "scrollbarSlider.hoverBackground": "#a89984",
    "scrollbarSlider.background": "#a8998480",
    "badge.background": "#7c6f64",
    "badge.foreground": "#fdf5d6",
    "progressBar.background": "#748420",
    "list.activeSelectionForeground": "#654735",
    "list.activeSelectionBackground": "#e0cfa960",
    "list.inactiveSelectionForeground": "#7c6f64",
    "list.inactiveSelectionBackground": "#e0cfa948",
    "list.dropBackground": "#f2e5bc80",
    "list.focusForeground": "#654735",
    "list.focusBackground": "#e0cfa960",
    "quickInput.list.focusBackground": "#e0cfa960",
    "list.inactiveFocusBackground": "#e0cfa948",
    "list.highlightForeground": "#748420",
    "list.hoverForeground": "#654735",
    "list.hoverBackground": "#fdf5d600",
    "list.invalidItemForeground": "#ea6962",
    "list.errorForeground": "#c14a4a",
    "list.warningForeground": "#c88d14",
    "tree.indentGuidesStroke": "#a89984",
    "activityBar.border": "#fdf5d6",
    "activityBar.background": "#fdf5d6",
    "activityBar.foreground": "#7c6f64",
    "activityBar.inactiveForeground": "#a89984",
    "activityBar.dropBackground": "#fdf5d6",
    "activityBar.activeBorder": "#928374",
    "activityBar.activeFocusBorder": "#928374",
    "activityBarBadge.background": "#7c6f64",
    "activityBarBadge.foreground": "#fdf5d6",
    "sideBar.foreground": "#928374",
    "sideBar.background": "#fdf5d6",
    "sideBarSectionHeader.background": "#fdf5d600",
    "sideBarTitle.foreground": "#7c6f64",
    "sideBarSectionHeader.foreground": "#7c6f64",
    "minimap.findMatchHighlight": "#89b48260",
    "minimap.selectionHighlight": "#d5c4a1f0",
    "minimap.errorHighlight": "#ea696280",
    "minimap.warningHighlight": "#d8a65780",
    "minimapGutter.addedBackground": "#a9b665a0",
    "minimapGutter.modifiedBackground": "#7daea3a0",
    "minimapGutter.deletedBackground": "#ea6962a0",
    "editorGroup.border": "#f2e5bc",
    "editorGroupHeader.tabsBackground": "#fdf5d6",
    "editorGroupHeader.noTabsBackground": "#fdf5d6",
    "editorGroup.dropBackground": "#e0cfa960",
    "tab.border": "#fdf5d6",
    "tab.activeBorder": "#7c6f64",
    "tab.inactiveBackground": "#fdf5d6",
    "tab.hoverBackground": "#fdf5d6",
    "tab.hoverForeground": "#654735",
    "tab.activeBackground": "#fdf5d6",
    "tab.activeForeground": "#654735",
    "tab.inactiveForeground": "#a89984",
    "tab.unfocusedActiveForeground": "#7c6f64",
    "tab.unfocusedActiveBorder": "#928374",
    "tab.unfocusedInactiveForeground": "#a89984",
    "tab.unfocusedHoverForeground": "#654735",
    "tab.lastPinnedBorder": "#7c6f64",
    "editor.background": "#fdf5d6",
    "editor.foreground": "#654735",
    "editorLineNumber.foreground": "#a89984",
    "editorLineNumber.activeForeground": "#928374",
    "editorCursor.foreground": "#654735",
    "editor.selectionBackground": "#d5c4a190",
    "editor.selectionHighlightBackground": "#d5c4a148",
    "editor.inactiveSelectionBackground": "#d5c4a148",
    "editor.wordHighlightBackground": "#d5c4a148",
    "editor.wordHighlightStrongBackground": "#d5c4a190",
    "editor.hoverHighlightBackground": "#d5c4a190",
    "editor.findMatchBackground": "#e78a4e40",
    "editor.findMatchHighlightBackground": "#a9b66540",
    "editor.findRangeHighlightBackground": "#d5c4a148",
    "editor.lineHighlightBorder": "#e0cfa900",
    "editor.lineHighlightBackground": "#eee0b770",
    "editor.rangeHighlightBackground": "#eee0b780",
    "editor.symbolHighlightBackground": "#7daea340",
    "editorLink.activeForeground": "#748420",
    "editorWhitespace.foreground": "#e0cfa9",
    "editorIndentGuide.background": "#7c6f6420",
    "editorIndentGuide.activeBackground": "#7c6f6450",
    "editorRuler.foreground": "#bdae93a0",
    "editorCodeLens.foreground": "#928374",
    "editor.foldBackground": "#e0cfa980",
    "editorBracketMatch.border": "#fdf5d600",
    "editorBracketMatch.background": "#a8998480",
    "editorOverviewRuler.border": "#fdf5d600",
    "editorOverviewRuler.findMatchForeground": "#89b482",
    "editorOverviewRuler.rangeHighlightForeground": "#89b482",
    "editorOverviewRuler.selectionHighlightForeground": "#89b482",
    "editorOverviewRuler.wordHighlightForeground": "#a89984",
    "editorOverviewRuler.wordHighlightStrongForeground": "#a89984",
    "editorOverviewRuler.modifiedForeground": "#7daea3a0",
    "editorOverviewRuler.addedForeground": "#a9b665a0",
    "editorOverviewRuler.deletedForeground": "#ea6962a0",
    "editorOverviewRuler.errorForeground": "#c14a4a",
    "editorOverviewRuler.warningForeground": "#c88d14",
    "editorOverviewRuler.infoForeground": "#45707a",
    "editorOverviewRuler.currentContentForeground": "#7daea3",
    "editorOverviewRuler.incomingContentForeground": "#89b482",
    "editorOverviewRuler.commonContentForeground": "#928374",
    "problemsErrorIcon.foreground": "#c14a4a",
    "problemsWarningIcon.foreground": "#c88d14",
    "problemsInfoIcon.foreground": "#945e80",
    "editorUnnecessaryCode.border": "#fdf5d6",
    "editorUnnecessaryCode.opacity": "#00000080",
    "editorError.foreground": "#ea6962",
    "editorWarning.foreground": "#d8a657",
    "editorInfo.foreground": "#7daea3",
    "editorHint.foreground": "#d3869b",
    "editorError.background": "#ea696200",
    "editorWarning.background": "#d8a65700",
    "editorInfo.background": "#7daea300",
    "editorGutter.background": "#fdf5d600",
    "editorGutter.modifiedBackground": "#7daea3a0",
    "editorGutter.addedBackground": "#a9b665a0",
    "editorGutter.deletedBackground": "#ea6962a0",
    "editorGutter.commentRangeForeground": "#a89984",
    "diffEditor.insertedTextBackground": "#89b48240",
    "diffEditor.removedTextBackground": "#ea696240",
    "diffEditor.diagonalFill": "#d5c4a1",
    "editorSuggestWidget.background": "#eee0b7",
    "editorSuggestWidget.foreground": "#654735",
    "editorSuggestWidget.highlightForeground": "#748420",
    "editorSuggestWidget.selectedBackground": "#e0cfa9",
    "editorSuggestWidget.border": "#eee0b7",
    "editorWidget.background": "#fdf5d6",
    "editorWidget.foreground": "#654735",
    "editorWidget.border": "#a89984",
    "editorHoverWidget.background": "#f2e5bc",
    "editorHoverWidget.border": "#d5c4a1",
    "editorMarkerNavigation.background": "#f2e5bc",
    "editorMarkerNavigationError.background": "#ea696280",
    "editorMarkerNavigationWarning.background": "#d8a65780",
    "editorMarkerNavigationInfo.background": "#7daea380",
    "peekView.border": "#ebdbb2",
    "peekViewEditor.background": "#f2e5bc",
    "peekViewEditor.matchHighlightBackground": "#d8a65750",
    "peekViewEditorGutter.background": "#f2e5bc",
    "peekViewResult.fileForeground": "#654735",
    "peekViewResult.lineForeground": "#7c6f64",
    "peekViewResult.matchHighlightBackground": "#d8a65750",
    "peekViewResult.selectionBackground": "#89b48250",
    "peekViewResult.selectionForeground": "#6f4f3c",
    "peekViewTitleDescription.foreground": "#6f4f3c",
    "peekViewTitleLabel.foreground": "#748420",
    "peekViewResult.background": "#f2e5bc",
    "peekViewTitle.background": "#ebdbb2",
    "pickerGroup.border": "#4f38291a",
    "terminal.foreground": "#654735",
    "terminalCursor.foreground": "#654735",
    "terminal.ansiBlack": "#4f3829",
    "terminal.ansiBlue": "#945e80",
    "terminal.ansiBrightBlack": "#654735",
    "terminal.ansiBrightBlue": "#945e80",
    "terminal.ansiBrightCyan": "#4c7a5d",
    "terminal.ansiBrightGreen": "#748420",
    "terminal.ansiBrightMagenta": "#45707a",
    "terminal.ansiBrightRed": "#c14a4a",
    "terminal.ansiBrightWhite": "#f2e5bc",
    "terminal.ansiBrightYellow": "#c88d14",
    "terminal.ansiCyan": "#4c7a5d",
    "terminal.ansiGreen": "#748420",
    "terminal.ansiMagenta": "#45707a",
    "terminal.ansiRed": "#c14a4a",
    "terminal.ansiWhite": "#928374",
    "terminal.ansiYellow": "#c88d14",
    "debugToolBar.background": "#fdf5d6",
    "debugTokenExpression.name": "#945e80",
    "debugTokenExpression.value": "#748420",
    "debugTokenExpression.string": "#c88d14",
    "debugTokenExpression.boolean": "#45707a",
    "debugTokenExpression.number": "#45707a",
    "debugTokenExpression.error": "#c14a4a",
    "debugIcon.breakpointForeground": "#c14a4a",
    "debugIcon.breakpointDisabledForeground": "#ea6962",
    "debugIcon.breakpointUnverifiedForeground": "#7c6f64",
    "debugIcon.breakpointCurrentStackframeForeground": "#945e80",
    "debugIcon.breakpointStackframeForeground": "#c14a4a",
    "debugIcon.startForeground": "#4c7a5d",
    "debugIcon.pauseForeground": "#c88d14",
    "debugIcon.stopForeground": "#c14a4a",
    "debugIcon.disconnectForeground": "#45707a",
    "debugIcon.restartForeground": "#4c7a5d",
    "debugIcon.stepOverForeground": "#945e80",
    "debugIcon.stepIntoForeground": "#945e80",
    "debugIcon.stepOutForeground": "#945e80",
    "debugIcon.continueForeground": "#945e80",
    "debugIcon.stepBackForeground": "#945e80",
    "debugConsole.infoForeground": "#748420",
    "debugConsole.warningForeground": "#c88d14",
    "debugConsole.errorForeground": "#c14a4a",
    "debugConsole.sourceForeground": "#45707a",
    "debugConsoleInputIcon.foreground": "#4c7a5d",
    "merge.incomingHeaderBackground": "#89b48280",
    "merge.incomingContentBackground": "#89b48240",
    "merge.currentHeaderBackground": "#7daea380",
    "merge.currentContentBackground": "#7daea340",
    "merge.border": "#fdf5d600",
    "panel.background": "#fdf5d6",
    "panel.border": "#fdf5d6",
    "panelInput.border": "#e0cfa9",
    "panelTitle.activeForeground": "#7c6f64",
    "panelTitle.activeBorder": "#928374",
    "panelTitle.inactiveForeground": "#a89984",
    "imagePreview.border": "#fdf5d6",
    "statusBar.background": "#fdf5d6",
    "statusBar.foreground": "#7c6f64",
    "statusBar.border": "#fdf5d6",
    "statusBar.debuggingForeground": "#c35e0a",
    "statusBar.debuggingBackground": "#fdf5d6",
    "statusBar.noFolderBackground": "#fdf5d6",
    "statusBar.noFolderForeground": "#7c6f64",
    "statusBar.noFolderBorder": "#fdf5d6",
    "statusBarItem.hoverBackground": "#ebdbb2",
    "statusBarItem.activeBackground": "#ebdbb2a0",
    "statusBarItem.prominentForeground": "#654735",
    "statusBarItem.prominentBackground": "#fdf5d6",
    "statusBarItem.prominentHoverBackground": "#ebdbb2a0",
    "statusBarItem.remoteBackground": "#fdf5d6",
    "statusBarItem.remoteForeground": "#7c6f64",
    "titleBar.activeBackground": "#fdf5d6",
    "titleBar.activeForeground": "#7c6f64",
    "titleBar.inactiveBackground": "#fdf5d6",
    "titleBar.inactiveForeground": "#a89984",
    "titleBar.border": "#fdf5d6",
    "menubar.selectionBackground": "#fdf5d6",
    "menubar.selectionBorder": "#fdf5d6",
    "menu.foreground": "#7c6f64",
    "menu.background": "#fdf5d6",
    "menu.selectionForeground": "#654735",
    "menu.selectionBackground": "#f2e5bc",
    "gitDecoration.addedResourceForeground": "#748420a0",
    "gitDecoration.modifiedResourceForeground": "#945e80a0",
    "gitDecoration.deletedResourceForeground": "#c14a4aa0",
    "gitDecoration.untrackedResourceForeground": "#c88d14a0",
    "gitDecoration.ignoredResourceForeground": "#c9b99a",
    "gitDecoration.conflictingResourceForeground": "#45707aa0",
    "gitDecoration.submoduleResourceForeground": "#c35e0aa0",
    "gitDecoration.stageDeletedResourceForeground": "#4c7a5da0",
    "gitDecoration.stageModifiedResourceForeground": "#4c7a5da0",
    "notificationCenterHeader.foreground": "#4f3829",
    "notificationCenterHeader.background": "#d5c4a1",
    "notifications.foreground": "#654735",
    "notifications.background": "#fdf5d6",
    "notificationLink.foreground": "#748420",
    "notificationsErrorIcon.foreground": "#c14a4a",
    "notificationsWarningIcon.foreground": "#c88d14",
    "notificationsInfoIcon.foreground": "#945e80",
    "extensionButton.prominentForeground": "#fdf5d6",
    "extensionButton.prominentBackground": "#7c6f64",
    "extensionButton.prominentHoverBackground": "#928374",
    "extensionBadge.remoteBackground": "#7c6f64",
    "extensionBadge.remoteForeground": "#fdf5d6",
    "settings.headerForeground": "#7c6f64",
    "settings.numberInputBackground": "#fdf5d6",
    "settings.numberInputForeground": "#45707a",
    "settings.numberInputBorder": "#c9b99a",
    "settings.textInputBackground": "#fdf5d6",
    "settings.textInputForeground": "#945e80",
    "settings.textInputBorder": "#c9b99a",
    "settings.checkboxBackground": "#fdf5d6",
    "settings.checkboxForeground": "#c35e0a",
    "settings.checkboxBorder": "#c9b99a",
    "settings.dropdownBackground": "#fdf5d6",
    "settings.dropdownForeground": "#4c7a5d",
    "settings.dropdownBorder": "#c9b99a",
    "settings.modifiedItemIndicator": "#a89984",
    "settings.focusedRowBackground": "#f2e5bc",
    "editorLightBulb.foreground": "#c88d14",
    "editorLightBulbAutoFix.foreground": "#4c7a5d",
    "welcomePage.buttonBackground": "#f2e5bc",
    "welcomePage.buttonHoverBackground": "#f2e5bca0",
    "breadcrumb.foreground": "#928374",
    "breadcrumb.focusForeground": "#4f3829",
    "breadcrumb.activeSelectionForeground": "#654735",
    "symbolIcon.colorForeground": "#654735",
    "symbolIcon.snippetForeground": "#654735",
    "symbolIcon.fieldForeground": "#654735",
    "symbolIcon.fileForeground": "#654735",
    "symbolIcon.folderForeground": "#654735",
    "symbolIcon.textForeground": "#654735",
    "symbolIcon.unitForeground": "#654735",
    "symbolIcon.keywordForeground": "#c14a4a",
    "symbolIcon.operatorForeground": "#c35e0a",
    "symbolIcon.classForeground": "#c88d14",
    "symbolIcon.eventForeground": "#c88d14",
    "symbolIcon.interfaceForeground": "#c88d14",
    "symbolIcon.structForeground": "#c88d14",
    "symbolIcon.functionForeground": "#748420",
    "symbolIcon.keyForeground": "#748420",
    "symbolIcon.methodForeground": "#748420",
    "symbolIcon.stringForeground": "#748420",
    "symbolIcon.constantForeground": "#4c7a5d",
    "symbolIcon.enumeratorMemberForeground": "#4c7a5d",
    "symbolIcon.nullForeground": "#4c7a5d",
    "symbolIcon.propertyForeground": "#4c7a5d",
    "symbolIcon.typeParameterForeground": "#4c7a5d",
    "symbolIcon.arrayForeground": "#945e80",
    "symbolIcon.referenceForeground": "#945e80",
    "symbolIcon.variableForeground": "#945e80",
    "symbolIcon.booleanForeground": "#45707a",
    "symbolIcon.constructorForeground": "#45707a",
    "symbolIcon.enumeratorForeground": "#45707a",
    "symbolIcon.moduleForeground": "#45707a",
    "symbolIcon.namespaceForeground": "#45707a",
    "symbolIcon.numberForeground": "#45707a",
    "symbolIcon.objectForeground": "#45707a",
    "symbolIcon.packageForeground": "#45707a",
    "editor.snippetTabstopHighlightBackground": "#e0cfa9a0",
    "editor.snippetFinalTabstopHighlightBackground": "#a9b66540",
    "editor.snippetFinalTabstopHighlightBorder": "#fdf5d6",
    "charts.red": "#c14a4a",
    "charts.orange": "#c35e0a",
    "charts.yellow": "#c88d14",
    "charts.green": "#748420",
    "charts.blue": "#945e80",
    "charts.purple": "#45707a",
    "charts.foreground": "#654735",
    "sash.hoverBorder": "#a89984",
    "notebook.focusedCellBackground": "#fdf5d6",
    "notebook.cellHoverBackground": "#fdf5d6",
    "notebook.outputContainerBackgroundColor": "#f2e5bc",
    "notebookStatusSuccessIcon.foreground": "#748420",
    "notebookStatusErrorIcon.foreground": "#c14a4a",
    "notebookStatusRunningIcon.foreground": "#945e80",
    "notebook.focusedCellBorder": "#c9b99a",
    "notebook.selectedCellBorder": "#c9b99a",
    "notebook.focusedRowBorder": "#c9b99a",
    "notebook.inactiveFocusedCellBorder": "#c9b99a",
    "notebook.cellToolbarSeparator": "#c9b99a",
    "testing.iconFailed": "#c14a4a",
    "testing.iconErrored": "#c14a4a",
    "testing.iconPassed": "#4c7a5d",
    "testing.runAction": "#4c7a5d",
    "testing.iconQueued": "#945e80",
    "testing.iconUnset": "#c88d14",
    "testing.iconSkipped": "#45707a",
    "gitlens.gutterBackgroundColor": "#fdf5d6",
    "gitlens.gutterForegroundColor": "#654735",
    "gitlens.gutterUncommittedForegroundColor": "#945e80",
    "gitlens.trailingLineForegroundColor": "#928374",
    "gitlens.lineHighlightBackgroundColor": "#f2e5bc",
    "gitlens.lineHighlightOverviewRulerColor": "#7c6f64",
    "gitlens.closedPullRequestIconColor": "#c14a4a",
    "gitlens.openPullRequestIconColor": "#4c7a5d",
    "gitlens.mergedPullRequestIconColor": "#45707a",
    "gitlens.unpushlishedChangesIconColor": "#945e80",
    "gitlens.unpublishedCommitIconColor": "#c88d14",
    "gitlens.unpulledChangesIconColor": "#c35e0a",
    "gitlens.decorations.addedForegroundColor": "#748420",
    "gitlens.decorations.copiedForegroundColor": "#45707a",
    "gitlens.decorations.deletedForegroundColor": "#c14a4a",
    "gitlens.decorations.ignoredForegroundColor": "#7c6f64",
    "gitlens.decorations.modifiedForegroundColor": "#945e80",
    "gitlens.decorations.untrackedForegroundColor": "#c88d14",
    "gitlens.decorations.renamedForegroundColor": "#45707a",
    "gitlens.decorations.branchAheadForegroundColor": "#4c7a5d",
    "gitlens.decorations.branchBehindForegroundColor": "#c35e0a",
    "gitlens.decorations.branchDivergedForegroundColor": "#c88d14",
    "gitlens.decorations.branchUpToDateForegroundColor": "#654735",
    "gitlens.decorations.branchUnpublishedForegroundColor": "#945e80",
    "gitlens.decorations.branchMissingUpstreamForegroundColor": "#c14a4a",
    "issues.open": "#4c7a5d",
    "issues.closed": "#c14a4a",
    "rust_analyzer.inlayHints.foreground": "#928374",
    "rust_analyzer.syntaxTreeBorder": "#c14a4a"
  },
  "tokenColors": [
    {
      "name": "Keyword",
      "scope": "keyword, storage.type.function, storage.type.class, storage.type.enum, storage.type.interface, storage.type.property, keyword.operator.new, keyword.operator.expression, keyword.operator.new, keyword.operator.delete, storage.type.extends",
      "settings": {
        "foreground": "#c14a4a"
      }
    },
    {
      "name": "Debug",
      "scope": "keyword.other.debugger",
      "settings": {
        "foreground": "#c14a4a"
      }
    },
    {
      "name": "Storage",
      "scope": "storage, modifier, keyword.var, entity.name.tag, keyword.control.case, keyword.control.switch",
      "settings": {
        "foreground": "#c35e0a"
      }
    },
    {
      "name": "Operator",
      "scope": "keyword.operator",
      "settings": {
        "foreground": "#c35e0a"
      }
    },
    {
      "name": "String",
      "scope": "string, punctuation.definition.string.end, punctuation.definition.string.begin, punctuation.definition.string.template.begin, punctuation.definition.string.template.end",
      "settings": {
        "foreground": "#c88d14"
      }
    },
    {
      "name": "Attribute",
      "scope": "entity.other.attribute-name",
      "settings": {
        "foreground": "#c88d14"
      }
    },
    {
      "name": "String Escape",
      "scope": "constant.character.escape, punctuation.quasi.element, punctuation.definition.template-expression, punctuation.section.embedded, storage.type.format, constant.other.placeholder, constant.other.placeholder, variable.interpolation",
      "settings": {
        "foreground": "#748420"
      }
    },
    {
      "name": "Function",
      "scope": "entity.name.function, support.function, meta.function, meta.function-call, meta.definition.method",
      "settings": {
        "foreground": "#748420"
      }
    },
    {
      "name": "Preproc",
      "scope": "keyword.control.at-rule, keyword.control.import, keyword.control.export, storage.type.namespace, punctuation.decorator, keyword.control.directive, keyword.preprocessor, punctuation.definition.preprocessor, punctuation.definition.directive, keyword.other.import, keyword.other.package, entity.name.type.namespace, entity.name.scope-resolution, keyword.other.using, keyword.package, keyword.import, keyword.map",
      "settings": {
        "foreground": "#4c7a5d"
      }
    },
    {
      "name": "Annotation",
      "scope": "storage.type.annotation",
      "settings": {
        "foreground": "#4c7a5d"
      }
    },
    {
      "name": "Label",
      "scope": "entity.name.label, constant.other.label",
      "settings": {
        "foreground": "#4c7a5d"
      }
    },
    {
      "name": "Modules",
      "scope": "support.module, support.node, support.other.module, support.type.object.module, entity.name.type.module, entity.name.type.class.module, keyword.control.module",
      "settings": {
        "foreground": "#4c7a5d"
      }
    },
    {
      "name": "Type",
      "scope": "storage.type, support.type, entity.name.type, keyword.type",
      "settings": {
        "foreground": "#945e80"
      }
    },
    {
      "name": "Class",
      "scope": "entity.name.type.class, support.class, entity.name.class, entity.other.inherited-class, storage.class",
      "settings": {
        "foreground": "#945e80"
      }
    },
    {
      "name": "Number",
      "scope": "constant.numeric",
      "settings": {
        "foreground": "#45707a"
      }
    },
    {
      "name": "Boolean",
      "scope": "constant.language.boolean",
      "settings": {
        "foreground": "#45707a"
      }
    },
    {
      "name": "Macro",
      "scope": "entity.name.function.preprocessor",
      "settings": {
        "foreground": "#45707a"
      }
    },
    {
      "name": "Special identifier",
      "scope": "variable.language.this, variable.language.self, variable.language.super, keyword.other.this, variable.language.special, constant.language.null, constant.language.undefined, constant.language.nan",
      "settings": {
        "foreground": "#45707a"
      }
    },
    {
      "name": "Constant",
      "scope": "constant.language, support.constant",
      "settings": {
        "foreground": "#45707a"
      }
    },
    {
      "name": "Identifier",
      "scope": "variable, support.variable, meta.definition.variable",
      "settings": {
        "foreground": "#654735"
      }
    },
    {
      "name": "Property",
      "scope": "variable.object.property, support.variable.property, variable.other.property, variable.other.object.property, variable.other.enummember, variable.other.member, meta.object-literal.key",
      "settings": {
        "foreground": "#654735"
      }
    },
    {
      "name": "Delimiter",
      "scope": "punctuation, meta.brace, meta.delimiter, meta.bracket",
      "settings": {
        "foreground": "#654735"
      }
    },
    {
      "name": "Markdown heading1",
      "scope": "heading.1.markdown, markup.heading.setext.1.markdown",
      "settings": {
        "foreground": "#c14a4a",
        "fontStyle": "bold"
      }
    },
    {
      "name": "Markdown heading2",
      "scope": "heading.2.markdown, markup.heading.setext.2.markdown",
      "settings": {
        "foreground": "#c35e0a",
        "fontStyle": "bold"
      }
    },
    {
      "name": "Markdown heading3",
      "scope": "heading.3.markdown",
      "settings": {
        "foreground": "#c88d14",
        "fontStyle": "bold"
      }
    },
    {
      "name": "Markdown heading4",
      "scope": "heading.4.markdown",
      "settings": {
        "foreground": "#748420",
        "fontStyle": "bold"
      }
    },
    {
      "name": "Markdown heading5",
      "scope": "heading.5.markdown",
      "settings": {
        "foreground": "#945e80",
        "fontStyle": "bold"
      }
    },
    {
      "name": "Markdown heading6",
      "scope": "heading.6.markdown",
      "settings": {
        "foreground": "#45707a",
        "fontStyle": "bold"
      }
    },
    {
      "name": "Markdown heading delimiter",
      "scope": "punctuation.definition.heading.markdown",
      "settings": {
        "foreground": "#928374",
        "fontStyle": "regular"
      }
    },
    {
      "name": "Markdown link",
      "scope": "string.other.link.title.markdown, constant.other.reference.link.markdown, string.other.link.description.markdown",
      "settings": {
        "foreground": "#45707a",
        "fontStyle": "regular"
      }
    },
    {
      "name": "Markdown link text",
      "scope": "markup.underline.link.image.markdown, markup.underline.link.markdown",
      "settings": {
        "foreground": "#748420",
        "fontStyle": "underline"
      }
    },
    {
      "name": "Markdown delimiter",
      "scope": "punctuation.definition.string.begin.markdown, punctuation.definition.string.end.markdown, punctuation.definition.italic.markdown, punctuation.definition.quote.begin.markdown, punctuation.definition.metadata.markdown, punctuation.separator.key-value.markdown, punctuation.definition.constant.markdown",
      "settings": {
        "foreground": "#928374"
      }
    },
    {
      "name": "Markdown bold delimiter",
      "scope": "punctuation.definition.bold.markdown",
      "settings": {
        "foreground": "#928374",
        "fontStyle": "regular"
      }
    },
    {
      "name": "Markdown separator delimiter",
      "scope": "meta.separator.markdown, punctuation.definition.constant.begin.markdown, punctuation.definition.constant.end.markdown",
      "settings": {
        "foreground": "#928374",
        "fontStyle": "bold"
      }
    },
    {
      "name": "Markdown italic",
      "scope": "markup.italic",
      "settings": {
        "fontStyle": "italic"
      }
    },
    {
      "name": "Markdown bold",
      "scope": "markup.bold",
      "settings": {
        "fontStyle": "bold"
      }
    },
    {
      "name": "Markdown bold italic",
      "scope": "markup.bold markup.italic, markup.italic markup.bold",
      "settings": {
        "fontStyle": "italic bold"
      }
    },
    {
      "name": "Markdown code delimiter",
      "scope": "punctuation.definition.markdown, punctuation.definition.raw.markdown",
      "settings": {
        "foreground": "#c88d14"
      }
    },
    {
      "name": "Markdown code type",
      "scope": "fenced_code.block.language",
      "settings": {
        "foreground": "#c88d14"
      }
    },
    {
      "name": "Markdown code block",
      "scope": "markup.fenced_code.block.markdown, markup.inline.raw.string.markdown",
      "settings": {
        "foreground": "#748420"
      }
    },
    {
      "name": "Markdown list mark",
      "scope": "punctuation.definition.list.begin.markdown",
      "settings": {
        "foreground": "#c14a4a"
      }
    },
    {
      "name": "reStructuredText heading",
      "scope": "punctuation.definition.heading.restructuredtext",
      "settings": {
        "foreground": "#c35e0a",
        "fontStyle": "bold"
      }
    },
    {
      "name": "reStructuredText delimiter",
      "scope": "punctuation.definition.field.restructuredtext, punctuation.separator.key-value.restructuredtext, punctuation.definition.directive.restructuredtext, punctuation.definition.constant.restructuredtext, punctuation.definition.italic.restructuredtext, punctuation.definition.table.restructuredtext",
      "settings": {
        "foreground": "#928374"
      }
    },
    {
      "name": "reStructuredText delimiter bold",
      "scope": "punctuation.definition.bold.restructuredtext",
      "settings": {
        "foreground": "#928374",
        "fontStyle": "regular"
      }
    },
    {
      "name": "reStructuredText aqua",
      "scope": "entity.name.tag.restructuredtext, punctuation.definition.link.restructuredtext, punctuation.definition.raw.restructuredtext, punctuation.section.raw.restructuredtext",
      "settings": {
        "foreground": "#4c7a5d"
      }
    },
    {
      "name": "reStructuredText purple",
      "scope": "constant.other.footnote.link.restructuredtext",
      "settings": {
        "foreground": "#45707a"
      }
    },
    {
      "name": "reStructuredText red",
      "scope": "support.directive.restructuredtext",
      "settings": {
        "foreground": "#c14a4a"
      }
    },
    {
      "name": "reStructuredText green",
      "scope": "entity.name.directive.restructuredtext, markup.raw.restructuredtext, markup.raw.inner.restructuredtext, string.other.link.title.restructuredtext",
      "settings": {
        "foreground": "#748420"
      }
    },
    {
      "name": "LaTex delimiter",
      "scope": "punctuation.definition.function.latex, punctuation.definition.function.tex, punctuation.definition.keyword.latex, constant.character.newline.tex, punctuation.definition.keyword.tex",
      "settings": {
        "foreground": "#928374"
      }
    },
    {
      "name": "LaTex red",
      "scope": "support.function.be.latex",
      "settings": {
        "foreground": "#c14a4a"
      }
    },
    {
      "name": "LaTex orange",
      "scope": "support.function.section.latex, keyword.control.table.cell.latex, keyword.control.table.newline.latex",
      "settings": {
        "foreground": "#c35e0a"
      }
    },
    {
      "name": "LaTex yellow",
      "scope": "support.class.latex, variable.parameter.latex, variable.parameter.function.latex, variable.parameter.definition.label.latex, constant.other.reference.label.latex",
      "settings": {
        "foreground": "#c88d14"
      }
    },
    {
      "name": "LaTex purple",
      "scope": "keyword.control.preamble.latex",
      "settings": {
        "foreground": "#45707a"
      }
    },
    {
      "name": "Html grey",
      "scope": "punctuation.separator.namespace.xml",
      "settings": {
        "foreground": "#928374"
      }
    },
    {
      "name": "Html orange",
      "scope": "entity.name.tag.html, entity.name.tag.xml, entity.name.tag.localname.xml",
      "settings": {
        "foreground": "#c35e0a"
      }
    },
    {
      "name": "Html yellow",
      "scope": "entity.other.attribute-name.html, entity.other.attribute-name.xml, entity.other.attribute-name.localname.xml",
      "settings": {
        "foreground": "#c88d14"
      }
    },
    {
      "name": "Html green",
      "scope": "string.quoted.double.html, string.quoted.single.html, punctuation.definition.string.begin.html, punctuation.definition.string.end.html, punctuation.separator.key-value.html, punctuation.definition.string.begin.xml, punctuation.definition.string.end.xml, string.quoted.double.xml, string.quoted.single.xml, punctuation.definition.tag.begin.html, punctuation.definition.tag.end.html, punctuation.definition.tag.xml, meta.tag.xml, meta.tag.preprocessor.xml, meta.tag.other.html, meta.tag.block.any.html, meta.tag.inline.any.html",
      "settings": {
        "foreground": "#748420"
      }
    },
    {
      "name": "Html purple",
      "scope": "variable.language.documentroot.xml, meta.tag.sgml.doctype.xml",
      "settings": {
        "foreground": "#45707a"
      }
    },
    {
      "name": "Proto yellow",
      "scope": "storage.type.proto",
      "settings": {
        "foreground": "#c88d14"
      }
    },
    {
      "name": "Proto green",
      "scope": "string.quoted.double.proto.syntax, string.quoted.single.proto.syntax, string.quoted.double.proto, string.quoted.single.proto",
      "settings": {
        "foreground": "#748420"
      }
    },
    {
      "name": "Proto aqua",
      "scope": "entity.name.class.proto, entity.name.class.message.proto",
      "settings": {
        "foreground": "#4c7a5d"
      }
    },
    {
      "name": "CSS grey",
      "scope": "punctuation.definition.entity.css, punctuation.separator.key-value.css, punctuation.terminator.rule.css, punctuation.separator.list.comma.css",
      "settings": {
        "foreground": "#928374"
      }
    },
    {
      "name": "CSS red",
      "scope": "entity.other.attribute-name.class.css",
      "settings": {
        "foreground": "#c14a4a"
      }
    },
    {
      "name": "CSS orange",
      "scope": "keyword.other.unit",
      "settings": {
        "foreground": "#c35e0a"
      }
    },
    {
      "name": "CSS yellow",
      "scope": "entity.other.attribute-name.pseudo-class.css, entity.other.attribute-name.pseudo-element.css",
      "settings": {
        "foreground": "#c88d14"
      }
    },
    {
      "name": "CSS green",
      "scope": "string.quoted.single.css, string.quoted.double.css, support.constant.property-value.css, meta.property-value.css, punctuation.definition.string.begin.css, punctuation.definition.string.end.css, constant.numeric.css, support.constant.font-name.css, variable.parameter.keyframe-list.css",
      "settings": {
        "foreground": "#748420"
      }
    },
    {
      "name": "CSS aqua",
      "scope": "support.type.property-name.css",
      "settings": {
        "foreground": "#4c7a5d"
      }
    },
    {
      "name": "CSS blue",
      "scope": "support.type.vendored.property-name.css",
      "settings": {
        "foreground": "#945e80"
      }
    },
    {
      "name": "CSS purple",
      "scope": "entity.name.tag.css, entity.other.keyframe-offset.css, punctuation.definition.keyword.css, keyword.control.at-rule.keyframes.css, meta.selector.css",
      "settings": {
        "foreground": "#45707a"
      }
    },
    {
      "name": "SASS grey",
      "scope": "punctuation.definition.entity.scss, punctuation.separator.key-value.scss, punctuation.terminator.rule.scss, punctuation.separator.list.comma.scss",
      "settings": {
        "foreground": "#928374"
      }
    },
    {
      "name": "SASS orange",
      "scope": "keyword.control.at-rule.keyframes.scss",
      "settings": {
        "foreground": "#c35e0a"
      }
    },
    {
      "name": "SASS yellow",
      "scope": "punctuation.definition.interpolation.begin.bracket.curly.scss, punctuation.definition.interpolation.end.bracket.curly.scss",
      "settings": {
        "foreground": "#c88d14"
      }
    },
    {
      "name": "SASS green",
      "scope": "punctuation.definition.string.begin.scss, punctuation.definition.string.end.scss, string.quoted.double.scss, string.quoted.single.scss, constant.character.css.sass, meta.property-value.scss",
      "settings": {
        "foreground": "#748420"
      }
    },
    {
      "name": "SASS purple",
      "scope": "keyword.control.at-rule.include.scss, keyword.control.at-rule.use.scss, keyword.control.at-rule.mixin.scss, keyword.control.at-rule.extend.scss, keyword.control.at-rule.import.scss",
      "settings": {
        "foreground": "#45707a"
      }
    },
    {
      "name": "Stylus white",
      "scope": "meta.function.stylus",
      "settings": {
        "foreground": "#654735"
      }
    },
    {
      "name": "Stylus yellow",
      "scope": "entity.name.function.stylus",
      "settings": {
        "foreground": "#c88d14"
      }
    },
    {
      "name": "JavaScript white",
      "scope": "string.unquoted.js",
      "settings": {
        "foreground": "#654735"
      }
    },
    {
      "name": "JavaScript grey",
      "scope": "punctuation.accessor.js, punctuation.separator.key-value.js, punctuation.separator.label.js, keyword.operator.accessor.js",
      "settings": {
        "foreground": "#928374"
      }
    },
    {
      "name": "JavaScript red",
      "scope": "punctuation.definition.block.tag.jsdoc",
      "settings": {
        "foreground": "#c14a4a"
      }
    },
    {
      "name": "JavaScript orange",
      "scope": "storage.type.js, storage.type.function.arrow.js",
      "settings": {
        "foreground": "#c35e0a"
      }
    },
    {
      "name": "JSX white",
      "scope": "JSXNested",
      "settings": {
        "foreground": "#654735"
      }
    },
    {
      "name": "JSX green",
      "scope": "punctuation.definition.tag.jsx, entity.other.attribute-name.jsx, punctuation.definition.tag.begin.js.jsx, punctuation.definition.tag.end.js.jsx, entity.other.attribute-name.js.jsx",
      "settings": {
        "foreground": "#748420"
      }
    },
    {
      "name": "TypeScript white",
      "scope": "entity.name.type.module.ts",
      "settings": {
        "foreground": "#654735"
      }
    },
    {
      "name": "TypeScript grey",
      "scope": "keyword.operator.type.annotation.ts, punctuation.accessor.ts, punctuation.separator.key-value.ts",
      "settings": {
        "foreground": "#928374"
      }
    },
    {
      "name": "TypeScript green",
      "scope": "punctuation.definition.tag.directive.ts, entity.other.attribute-name.directive.ts",
      "settings": {
        "foreground": "#748420"
      }
    },
    {
      "name": "TypeScript aqua",
      "scope": "entity.name.type.ts, entity.name.type.interface.ts, entity.other.inherited-class.ts, entity.name.type.alias.ts, entity.name.type.class.ts, entity.name.type.enum.ts",
      "settings": {
        "foreground": "#4c7a5d"
      }
    },
    {
      "name": "TypeScript orange",
      "scope": "storage.type.ts, storage.type.function.arrow.ts, storage.type.type.ts",
      "settings": {
        "foreground": "#c35e0a"
      }
    },
    {
      "name": "TypeScript blue",
      "scope": "entity.name.type.module.ts",
      "settings": {
        "foreground": "#945e80"
      }
    },
    {
      "name": "TypeScript purple",
      "scope": "keyword.control.import.ts, keyword.control.export.ts, storage.type.namespace.ts",
      "settings": {
        "foreground": "#45707a"
      }
    },
    {
      "name": "TSX white",
      "scope": "entity.name.type.module.tsx",
      "settings": {
        "foreground": "#654735"
      }
    },
    {
      "name": "TSX grey",
      "scope": "keyword.operator.type.annotation.tsx, punctuation.accessor.tsx, punctuation.separator.key-value.tsx",
      "settings": {
        "foreground": "#928374"
      }
    },
    {
      "name": "TSX green",
      "scope": "punctuation.definition.tag.directive.tsx, entity.other.attribute-name.directive.tsx, punctuation.definition.tag.begin.tsx, punctuation.definition.tag.end.tsx, entity.other.attribute-name.tsx",
      "settings": {
        "foreground": "#748420"
      }
    },
    {
      "name": "TSX aqua",
      "scope": "entity.name.type.tsx, entity.name.type.interface.tsx, entity.other.inherited-class.tsx, entity.name.type.alias.tsx, entity.name.type.class.tsx, entity.name.type.enum.tsx",
      "settings": {
        "foreground": "#4c7a5d"
      }
    },
    {
      "name": "TSX blue",
      "scope": "entity.name.type.module.tsx",
      "settings": {
        "foreground": "#945e80"
      }
    },
    {
      "name": "TSX purple",
      "scope": "keyword.control.import.tsx, keyword.control.export.tsx, storage.type.namespace.tsx",
      "settings": {
        "foreground": "#45707a"
      }
    },
    {
      "name": "TSX orange",
      "scope": "storage.type.tsx, storage.type.function.arrow.tsx, storage.type.type.tsx, support.class.component.tsx",
      "settings": {
        "foreground": "#c35e0a"
      }
    },
    {
      "name": "CoffeeScript orange",
      "scope": "storage.type.function.coffee",
      "settings": {
        "foreground": "#c35e0a"
      }
    },
    {
      "name": "PureScript white",
      "scope": "meta.type-signature.purescript",
      "settings": {
        "foreground": "#654735"
      }
    },
    {
      "name": "PureScript orange",
      "scope": "keyword.other.double-colon.purescript, keyword.other.arrow.purescript, keyword.other.big-arrow.purescript",
      "settings": {
        "foreground": "#c35e0a"
      }
    },
    {
      "name": "PureScript yellow",
      "scope": "entity.name.function.purescript",
      "settings": {
        "foreground": "#c88d14"
      }
    },
    {
      "name": "PureScript green",
      "scope": "string.quoted.single.purescript, string.quoted.double.purescript, punctuation.definition.string.begin.purescript, punctuation.definition.string.end.purescript, string.quoted.triple.purescript, entity.name.type.purescript",
      "settings": {
        "foreground": "#748420"
      }
    },
    {
      "name": "PureScript purple",
      "scope": "support.other.module.purescript",
      "settings": {
        "foreground": "#45707a"
      }
    },
    {
      "name": "Dart grey",
      "scope": "punctuation.dot.dart",
      "settings": {
        "foreground": "#928374"
      }
    },
    {
      "name": "Dart orange",
      "scope": "storage.type.primitive.dart",
      "settings": {
        "foreground": "#c35e0a"
      }
    },
    {
      "name": "Dart yellow",
      "scope": "support.class.dart",
      "settings": {
        "foreground": "#c88d14"
      }
    },
    {
      "name": "Dart green",
      "scope": "entity.name.function.dart, string.interpolated.single.dart, string.interpolated.double.dart",
      "settings": {
        "foreground": "#748420"
      }
    },
    {
      "name": "Dart blue",
      "scope": "variable.language.dart",
      "settings": {
        "foreground": "#945e80"
      }
    },
    {
      "name": "Dart purple",
      "scope": "keyword.other.import.dart, storage.type.annotation.dart",
      "settings": {
        "foreground": "#45707a"
      }
    },
    {
      "name": "Pug red",
      "scope": "entity.other.attribute-name.class.pug",
      "settings": {
        "foreground": "#c14a4a"
      }
    },
    {
      "name": "Pug orange",
      "scope": "storage.type.function.pug",
      "settings": {
        "foreground": "#c35e0a"
      }
    },
    {
      "name": "Pug aqua",
      "scope": "entity.other.attribute-name.tag.pug",
      "settings": {
        "foreground": "#4c7a5d"
      }
    },
    {
      "name": "Pug purple",
      "scope": "entity.name.tag.pug, storage.type.import.include.pug",
      "settings": {
        "foreground": "#45707a"
      }
    },
    {
      "name": "C white",
      "scope": "meta.function-call.c, storage.modifier.array.bracket.square.c, meta.function.definition.parameters.c",
      "settings": {
        "foreground": "#654735"
      }
    },
    {
      "name": "C grey",
      "scope": "punctuation.separator.dot-access.c, constant.character.escape.line-continuation.c",
      "settings": {
        "foreground": "#928374"
      }
    },
    {
      "name": "C red",
      "scope": "keyword.control.directive.include.c, punctuation.definition.directive.c, keyword.control.directive.pragma.c, keyword.control.directive.line.c, keyword.control.directive.define.c, keyword.control.directive.conditional.c, keyword.control.directive.diagnostic.error.c, keyword.control.directive.undef.c, keyword.control.directive.conditional.ifdef.c, keyword.control.directive.endif.c, keyword.control.directive.conditional.ifndef.c, keyword.control.directive.conditional.if.c, keyword.control.directive.else.c",
      "settings": {
        "foreground": "#c14a4a"
      }
    },
    {
      "name": "C orange",
      "scope": "punctuation.separator.pointer-access.c",
      "settings": {
        "foreground": "#c35e0a"
      }
    },
    {
      "name": "C aqua",
      "scope": "variable.other.member.c",
      "settings": {
        "foreground": "#4c7a5d"
      }
    },
    {
      "name": "C++ white",
      "scope": "meta.function-call.cpp, storage.modifier.array.bracket.square.cpp, meta.function.definition.parameters.cpp, meta.body.function.definition.cpp",
      "settings": {
        "foreground": "#654735"
      }
    },
    {
      "name": "C++ grey",
      "scope": "punctuation.separator.dot-access.cpp, constant.character.escape.line-continuation.cpp",
      "settings": {
        "foreground": "#928374"
      }
    },
    {
      "name": "C++ red",
      "scope": "keyword.control.directive.include.cpp, punctuation.definition.directive.cpp, keyword.control.directive.pragma.cpp, keyword.control.directive.line.cpp, keyword.control.directive.define.cpp, keyword.control.directive.conditional.cpp, keyword.control.directive.diagnostic.error.cpp, keyword.control.directive.undef.cpp, keyword.control.directive.conditional.ifdef.cpp, keyword.control.directive.endif.cpp, keyword.control.directive.conditional.ifndef.cpp, keyword.control.directive.conditional.if.cpp, keyword.control.directive.else.cpp, storage.type.namespace.definition.cpp, keyword.other.using.directive.cpp, storage.type.struct.cpp",
      "settings": {
        "foreground": "#c14a4a"
      }
    },
    {
      "name": "C++ orange",
      "scope": "punctuation.separator.pointer-access.cpp, punctuation.section.angle-brackets.begin.template.call.cpp, punctuation.section.angle-brackets.end.template.call.cpp",
      "settings": {
        "foreground": "#c35e0a"
      }
    },
    {
      "name": "C++ aqua",
      "scope": "variable.other.member.cpp",
      "settings": {
        "foreground": "#4c7a5d"
      }
    },
    {
      "name": "C# red",
      "scope": "keyword.other.using.cs",
      "settings": {
        "foreground": "#c14a4a"
      }
    },
    {
      "name": "C# yellow",
      "scope": "keyword.type.cs, constant.character.escape.cs, punctuation.definition.interpolation.begin.cs, punctuation.definition.interpolation.end.cs",
      "settings": {
        "foreground": "#c88d14"
      }
    },
    {
      "name": "C# green",
      "scope": "string.quoted.double.cs, string.quoted.single.cs, punctuation.definition.string.begin.cs, punctuation.definition.string.end.cs",
      "settings": {
        "foreground": "#748420"
      }
    },
    {
      "name": "C# aqua",
      "scope": "variable.other.object.property.cs",
      "settings": {
        "foreground": "#4c7a5d"
      }
    },
    {
      "name": "C# purple",
      "scope": "entity.name.type.namespace.cs",
      "settings": {
        "foreground": "#45707a"
      }
    },
    {
      "name": "F# white",
      "scope": "keyword.symbol.fsharp, constant.language.unit.fsharp",
      "settings": {
        "foreground": "#654735"
      }
    },
    {
      "name": "F# yellow",
      "scope": "keyword.format.specifier.fsharp, entity.name.type.fsharp",
      "settings": {
        "foreground": "#c88d14"
      }
    },
    {
      "name": "F# green",
      "scope": "string.quoted.double.fsharp, string.quoted.single.fsharp, punctuation.definition.string.begin.fsharp, punctuation.definition.string.end.fsharp",
      "settings": {
        "foreground": "#748420"
      }
    },
    {
      "name": "F# blue",
      "scope": "entity.name.section.fsharp",
      "settings": {
        "foreground": "#945e80"
      }
    },
    {
      "name": "F# purple",
      "scope": "support.function.attribute.fsharp",
      "settings": {
        "foreground": "#45707a"
      }
    },
    {
      "name": "Java grey",
      "scope": "punctuation.separator.java, punctuation.separator.period.java",
      "settings": {
        "foreground": "#928374"
      }
    },
    {
      "name": "Java red",
      "scope": "keyword.other.import.java, keyword.other.package.java",
      "settings": {
        "foreground": "#c14a4a"
      }
    },
    {
      "name": "Java orange",
      "scope": "storage.type.function.arrow.java, keyword.control.ternary.java",
      "settings": {
        "foreground": "#c35e0a"
      }
    },
    {
      "name": "Java aqua",
      "scope": "variable.other.property.java",
      "settings": {
        "foreground": "#4c7a5d"
      }
    },
    {
      "name": "Java purple",
      "scope": "variable.language.wildcard.java, storage.modifier.import.java, storage.type.annotation.java, punctuation.definition.annotation.java, storage.modifier.package.java, entity.name.type.module.java",
      "settings": {
        "foreground": "#45707a"
      }
    },
    {
      "name": "Kotlin red",
      "scope": "keyword.other.import.kotlin",
      "settings": {
        "foreground": "#c14a4a"
      }
    },
    {
      "name": "Kotlin orange",
      "scope": "storage.type.kotlin",
      "settings": {
        "foreground": "#c35e0a"
      }
    },
    {
      "name": "Kotlin aqua",
      "scope": "constant.language.kotlin",
      "settings": {
        "foreground": "#4c7a5d"
      }
    },
    {
      "name": "Kotlin purple",
      "scope": "entity.name.package.kotlin, storage.type.annotation.kotlin",
      "settings": {
        "foreground": "#45707a"
      }
    },
    {
      "name": "Scala purple",
      "scope": "entity.name.package.scala",
      "settings": {
        "foreground": "#45707a"
      }
    },
    {
      "name": "Scala blue",
      "scope": "constant.language.scala",
      "settings": {
        "foreground": "#945e80"
      }
    },
    {
      "name": "Scala aqua",
      "scope": "entity.name.import.scala",
      "settings": {
        "foreground": "#4c7a5d"
      }
    },
    {
      "name": "Scala green",
      "scope": "string.quoted.double.scala, string.quoted.single.scala, punctuation.definition.string.begin.scala, punctuation.definition.string.end.scala, string.quoted.double.interpolated.scala, string.quoted.single.interpolated.scala, string.quoted.triple.scala",
      "settings": {
        "foreground": "#748420"
      }
    },
    {
      "name": "Scala yellow",
      "scope": "entity.name.class, entity.other.inherited-class.scala",
      "settings": {
        "foreground": "#c88d14"
      }
    },
    {
      "name": "Scala orange",
      "scope": "keyword.declaration.stable.scala, keyword.other.arrow.scala",
      "settings": {
        "foreground": "#c35e0a"
      }
    },
    {
      "name": "Scala red",
      "scope": "keyword.other.import.scala",
      "settings": {
        "foreground": "#c14a4a"
      }
    },
    {
      "name": "Groovy white",
      "scope": "keyword.operator.navigation.groovy, meta.method.body.java, meta.definition.method.groovy, meta.definition.method.signature.java",
      "settings": {
        "foreground": "#654735"
      }
    },
    {
      "name": "Scala grey",
      "scope": "punctuation.separator.groovy",
      "settings": {
        "foreground": "#928374"
      }
    },
    {
      "name": "Scala red",
      "scope": "keyword.other.import.groovy, keyword.other.package.groovy, keyword.other.import.static.groovy",
      "settings": {
        "foreground": "#c14a4a"
      }
    },
    {
      "name": "Groovy orange",
      "scope": "storage.type.def.groovy",
      "settings": {
        "foreground": "#c35e0a"
      }
    },
    {
      "name": "Groovy green",
      "scope": "variable.other.interpolated.groovy, meta.method.groovy",
      "settings": {
        "foreground": "#748420"
      }
    },
    {
      "name": "Groovy aqua",
      "scope": "storage.modifier.import.groovy, storage.modifier.package.groovy",
      "settings": {
        "foreground": "#4c7a5d"
      }
    },
    {
      "name": "Groovy purple",
      "scope": "storage.type.annotation.groovy",
      "settings": {
        "foreground": "#45707a"
      }
    },
    {
      "name": "Go red",
      "scope": "keyword.type.go",
      "settings": {
        "foreground": "#c14a4a"
      }
    },
    {
      "name": "Go aqua",
      "scope": "entity.name.package.go",
      "settings": {
        "foreground": "#4c7a5d"
      }
    },
    {
      "name": "Go purple",
      "scope": "keyword.import.go, keyword.package.go",
      "settings": {
        "foreground": "#45707a"
      }
    },
    {
      "name": "Rust white",
      "scope": "entity.name.type.mod.rust",
      "settings": {
        "foreground": "#654735"
      }
    },
    {
      "name": "Rust grey",
      "scope": "keyword.operator.path.rust, keyword.operator.member-access.rust",
      "settings": {
        "foreground": "#928374"
      }
    },
    {
      "name": "Rust orange",
      "scope": "storage.type.rust",
      "settings": {
        "foreground": "#c35e0a"
      }
    },
    {
      "name": "Rust aqua",
      "scope": "support.constant.core.rust",
      "settings": {
        "foreground": "#4c7a5d"
      }
    },
    {
      "name": "Rust purple",
      "scope": "meta.attribute.rust, variable.language.rust, storage.type.module.rust",
      "settings": {
        "foreground": "#45707a"
      }
    },
    {
      "name": "Swift white",
      "scope": "meta.function-call.swift, support.function.any-method.swift",
      "settings": {
        "foreground": "#654735"
      }
    },
    {
      "name": "Swift aqua",
      "scope": "support.variable.swift",
      "settings": {
        "foreground": "#4c7a5d"
      }
    },
    {
      "name": "PHP white",
      "scope": "keyword.operator.class.php",
      "settings": {
        "foreground": "#654735"
      }
    },
    {
      "name": "PHP orange",
      "scope": "storage.type.trait.php",
      "settings": {
        "foreground": "#c35e0a"
      }
    },
    {
      "name": "PHP aqua",
      "scope": "constant.language.php, support.other.namespace.php",
      "settings": {
        "foreground": "#4c7a5d"
      }
    },
    {
      "name": "PHP blue",
      "scope": "storage.type.modifier.access.control.public.cpp, storage.type.modifier.access.control.private.cpp",
      "settings": {
        "foreground": "#945e80"
      }
    },
    {
      "name": "PHP purple",
      "scope": "keyword.control.import.include.php, storage.type.php",
      "settings": {
        "foreground": "#45707a"
      }
    },
    {
      "name": "Python white",
      "scope": "meta.function-call.arguments.python",
      "settings": {
        "foreground": "#654735"
      }
    },
    {
      "name": "Python grey",
      "scope": "punctuation.definition.decorator.python, punctuation.separator.period.python",
      "settings": {
        "foreground": "#928374"
      }
    },
    {
      "name": "Python aqua",
      "scope": "constant.language.python",
      "settings": {
        "foreground": "#4c7a5d"
      }
    },
    {
      "name": "Python purple",
      "scope": "keyword.control.import.python, keyword.control.import.from.python",
      "settings": {
        "foreground": "#45707a"
      }
    },
    {
      "name": "Lua aqua",
      "scope": "constant.language.lua",
      "settings": {
        "foreground": "#4c7a5d"
      }
    },
    {
      "name": "Lua blue",
      "scope": "entity.name.class.lua",
      "settings": {
        "foreground": "#945e80"
      }
    },
    {
      "name": "Ruby white",
      "scope": "meta.function.method.with-arguments.ruby",
      "settings": {
        "foreground": "#654735"
      }
    },
    {
      "name": "Ruby grey",
      "scope": "punctuation.separator.method.ruby",
      "settings": {
        "foreground": "#928374"
      }
    },
    {
      "name": "Ruby orange",
      "scope": "keyword.control.pseudo-method.ruby, storage.type.variable.ruby",
      "settings": {
        "foreground": "#c35e0a"
      }
    },
    {
      "name": "Ruby green",
      "scope": "keyword.other.special-method.ruby",
      "settings": {
        "foreground": "#748420"
      }
    },
    {
      "name": "Ruby purple",
      "scope": "keyword.control.module.ruby, punctuation.definition.constant.ruby",
      "settings": {
        "foreground": "#45707a"
      }
    },
    {
      "name": "Ruby yellow",
      "scope": "string.regexp.character-class.ruby,string.regexp.interpolated.ruby,punctuation.definition.character-class.ruby,string.regexp.group.ruby, punctuation.section.regexp.ruby, punctuation.definition.group.ruby",
      "settings": {
        "foreground": "#c88d14"
      }
    },
    {
      "name": "Ruby blue",
      "scope": "variable.other.constant.ruby",
      "settings": {
        "foreground": "#945e80"
      }
    },
    {
      "name": "Haskell orange",
      "scope": "keyword.other.arrow.haskell, keyword.other.big-arrow.haskell, keyword.other.double-colon.haskell",
      "settings": {
        "foreground": "#c35e0a"
      }
    },
    {
      "name": "Haskell yellow",
      "scope": "storage.type.haskell",
      "settings": {
        "foreground": "#c88d14"
      }
    },
    {
      "name": "Haskell green",
      "scope": "constant.other.haskell, string.quoted.double.haskell, string.quoted.single.haskell, punctuation.definition.string.begin.haskell, punctuation.definition.string.end.haskell",
      "settings": {
        "foreground": "#748420"
      }
    },
    {
      "name": "Haskell blue",
      "scope": "entity.name.function.haskell",
      "settings": {
        "foreground": "#945e80"
      }
    },
    {
      "name": "Haskell aqua",
      "scope": "entity.name.namespace, meta.preprocessor.haskell",
      "settings": {
        "foreground": "#4c7a5d"
      }
    },
    {
      "name": "Julia red",
      "scope": "keyword.control.import.julia, keyword.control.export.julia",
      "settings": {
        "foreground": "#c14a4a"
      }
    },
    {
      "name": "Julia orange",
      "scope": "keyword.storage.modifier.julia",
      "settings": {
        "foreground": "#c35e0a"
      }
    },
    {
      "name": "Julia aqua",
      "scope": "constant.language.julia",
      "settings": {
        "foreground": "#4c7a5d"
      }
    },
    {
      "name": "Julia purple",
      "scope": "support.function.macro.julia",
      "settings": {
        "foreground": "#45707a"
      }
    },
    {
      "name": "Elm white",
      "scope": "keyword.other.period.elm",
      "settings": {
        "foreground": "#654735"
      }
    },
    {
      "name": "Elm yellow",
      "scope": "storage.type.elm",
      "settings": {
        "foreground": "#c88d14"
      }
    },
    {
      "name": "R orange",
      "scope": "keyword.other.r",
      "settings": {
        "foreground": "#c35e0a"
      }
    },
    {
      "name": "R green",
      "scope": "entity.name.function.r, variable.function.r",
      "settings": {
        "foreground": "#748420"
      }
    },
    {
      "name": "R aqua",
      "scope": "constant.language.r",
      "settings": {
        "foreground": "#4c7a5d"
      }
    },
    {
      "name": "R purple",
      "scope": "entity.namespace.r",
      "settings": {
        "foreground": "#45707a"
      }
    },
    {
      "name": "Erlang grey",
      "scope": "punctuation.separator.module-function.erlang, punctuation.section.directive.begin.erlang",
      "settings": {
        "foreground": "#928374"
      }
    },
    {
      "name": "Erlang red",
      "scope": "keyword.control.directive.erlang, keyword.control.directive.define.erlang",
      "settings": {
        "foreground": "#c14a4a"
      }
    },
    {
      "name": "Erlang yellow",
      "scope": "entity.name.type.class.module.erlang",
      "settings": {
        "foreground": "#c88d14"
      }
    },
    {
      "name": "Erlang green",
      "scope": "string.quoted.double.erlang, string.quoted.single.erlang, punctuation.definition.string.begin.erlang, punctuation.definition.string.end.erlang",
      "settings": {
        "foreground": "#748420"
      }
    },
    {
      "name": "Erlang purple",
      "scope": "keyword.control.directive.export.erlang, keyword.control.directive.module.erlang, keyword.control.directive.import.erlang, keyword.control.directive.behaviour.erlang",
      "settings": {
        "foreground": "#45707a"
      }
    },
    {
      "name": "Elixir aqua",
      "scope": "variable.other.readwrite.module.elixir, punctuation.definition.variable.elixir",
      "settings": {
        "foreground": "#4c7a5d"
      }
    },
    {
      "name": "Elixir blue",
      "scope": "constant.language.elixir",
      "settings": {
        "foreground": "#945e80"
      }
    },
    {
      "name": "Elixir purple",
      "scope": "keyword.control.module.elixir",
      "settings": {
        "foreground": "#45707a"
      }
    },
    {
      "name": "OCaml white",
      "scope": "entity.name.type.value-signature.ocaml",
      "settings": {
        "foreground": "#654735"
      }
    },
    {
      "name": "OCaml orange",
      "scope": "keyword.other.ocaml",
      "settings": {
        "foreground": "#FDF5D6"
      }
    },
    {
      "name": "OCaml aqua",
      "scope": "constant.language.variant.ocaml",
      "settings": {
        "foreground": "#4c7a5d"
      }
    },
    {
      "name": "Perl red",
      "scope": "storage.type.sub.perl, storage.type.declare.routine.perl",
      "settings": {
        "foreground": "#c14a4a"
      }
    },
    {
      "name": "Lisp white",
      "scope": "meta.function.lisp",
      "settings": {
        "foreground": "#654735"
      }
    },
    {
      "name": "Lisp red",
      "scope": "storage.type.function-type.lisp",
      "settings": {
        "foreground": "#c14a4a"
      }
    },
    {
      "name": "Lisp green",
      "scope": "keyword.constant.lisp",
      "settings": {
        "foreground": "#748420"
      }
    },
    {
      "name": "Lisp aqua",
      "scope": "entity.name.function.lisp",
      "settings": {
        "foreground": "#4c7a5d"
      }
    },
    {
      "name": "Clojure green",
      "scope": "constant.keyword.clojure, support.variable.clojure, meta.definition.variable.clojure",
      "settings": {
        "foreground": "#748420"
      }
    },
    {
      "name": "Clojure purple",
      "scope": "entity.global.clojure",
      "settings": {
        "foreground": "#45707a"
      }
    },
    {
      "name": "Clojure blue",
      "scope": "entity.name.function.clojure",
      "settings": {
        "foreground": "#945e80"
      }
    },
    {
      "name": "Shell white",
      "scope": "meta.scope.if-block.shell, meta.scope.group.shell",
      "settings": {
        "foreground": "#654735"
      }
    },
    {
      "name": "Shell yellow",
      "scope": "support.function.builtin.shell, entity.name.function.shell",
      "settings": {
        "foreground": "#c88d14"
      }
    },
    {
      "name": "Shell green",
      "scope": "string.quoted.double.shell, string.quoted.single.shell, punctuation.definition.string.begin.shell, punctuation.definition.string.end.shell, string.unquoted.heredoc.shell",
      "settings": {
        "foreground": "#748420"
      }
    },
    {
      "name": "Shell purple",
      "scope": "keyword.control.heredoc-token.shell, variable.other.normal.shell, punctuation.definition.variable.shell, variable.other.special.shell, variable.other.positional.shell, variable.other.bracket.shell",
      "settings": {
        "foreground": "#45707a"
      }
    },
    {
      "name": "Fish red",
      "scope": "support.function.builtin.fish",
      "settings": {
        "foreground": "#c14a4a"
      }
    },
    {
      "name": "Fish orange",
      "scope": "support.function.unix.fish",
      "settings": {
        "foreground": "#c35e0a"
      }
    },
    {
      "name": "Fish blue",
      "scope": "variable.other.normal.fish, punctuation.definition.variable.fish, variable.other.fixed.fish, variable.other.special.fish",
      "settings": {
        "foreground": "#945e80"
      }
    },
    {
      "name": "Fish green",
      "scope": "string.quoted.double.fish, punctuation.definition.string.end.fish, punctuation.definition.string.begin.fish, string.quoted.single.fish",
      "settings": {
        "foreground": "#748420"
      }
    },
    {
      "name": "Fish purple",
      "scope": "constant.character.escape.single.fish",
      "settings": {
        "foreground": "#45707a"
      }
    },
    {
      "name": "PowerShell grey",
      "scope": "punctuation.definition.variable.powershell",
      "settings": {
        "foreground": "#928374"
      }
    },
    {
      "name": "PowerShell yellow",
      "scope": "entity.name.function.powershell, support.function.attribute.powershell, support.function.powershell",
      "settings": {
        "foreground": "#c88d14"
      }
    },
    {
      "name": "PowerShell green",
      "scope": "string.quoted.single.powershell, string.quoted.double.powershell, punctuation.definition.string.begin.powershell, punctuation.definition.string.end.powershell, string.quoted.double.heredoc.powershell",
      "settings": {
        "foreground": "#748420"
      }
    },
    {
      "name": "PowerShell aqua",
      "scope": "variable.other.member.powershell",
      "settings": {
        "foreground": "#4c7a5d"
      }
    },
    {
      "name": "GraphQL white",
      "scope": "string.unquoted.alias.graphql",
      "settings": {
        "foreground": "#654735"
      }
    },
    {
      "name": "GraphQL red",
      "scope": "keyword.type.graphql",
      "settings": {
        "foreground": "#c14a4a"
      }
    },
    {
      "name": "GraphQL purple",
      "scope": "entity.name.fragment.graphql",
      "settings": {
        "foreground": "#45707a"
      }
    },
    {
      "name": "Makefile orange",
      "scope": "entity.name.function.target.makefile",
      "settings": {
        "foreground": "#c35e0a"
      }
    },
    {
      "name": "Makefile yellow",
      "scope": "variable.other.makefile",
      "settings": {
        "foreground": "#c88d14"
      }
    },
    {
      "name": "Makefile green",
      "scope": "meta.scope.prerequisites.makefile",
      "settings": {
        "foreground": "#748420"
      }
    },
    {
      "name": "CMake green",
      "scope": "string.source.cmake",
      "settings": {
        "foreground": "#748420"
      }
    },
    {
      "name": "CMake aqua",
      "scope": "entity.source.cmake",
      "settings": {
        "foreground": "#4c7a5d"
      }
    },
    {
      "name": "CMake purple",
      "scope": "storage.source.cmake",
      "settings": {
        "foreground": "#45707a"
      }
    },
    {
      "name": "VimL grey",
      "scope": "punctuation.definition.map.viml",
      "settings": {
        "foreground": "#928374"
      }
    },
    {
      "name": "VimL orange",
      "scope": "storage.type.map.viml",
      "settings": {
        "foreground": "#c35e0a"
      }
    },
    {
      "name": "VimL green",
      "scope": "constant.character.map.viml, constant.character.map.key.viml",
      "settings": {
        "foreground": "#748420"
      }
    },
    {
      "name": "VimL blue",
      "scope": "constant.character.map.special.viml",
      "settings": {
        "foreground": "#945e80"
      }
    },
    {
      "name": "Tmux green",
      "scope": "constant.language.tmux, constant.numeric.tmux",
      "settings": {
        "foreground": "#748420"
      }
    },
    {
      "name": "Dockerfile orange",
      "scope": "entity.name.function.package-manager.dockerfile",
      "settings": {
        "foreground": "#c35e0a"
      }
    },
    {
      "name": "Dockerfile yellow",
      "scope": "keyword.operator.flag.dockerfile",
      "settings": {
        "foreground": "#c88d14"
      }
    },
    {
      "name": "Dockerfile green",
      "scope": "string.quoted.double.dockerfile, string.quoted.single.dockerfile",
      "settings": {
        "foreground": "#748420"
      }
    },
    {
      "name": "Dockerfile aqua",
      "scope": "constant.character.escape.dockerfile",
      "settings": {
        "foreground": "#4c7a5d"
      }
    },
    {
      "name": "Dockerfile purple",
      "scope": "entity.name.type.base-image.dockerfile, entity.name.image.dockerfile",
      "settings": {
        "foreground": "#45707a"
      }
    },
    {
      "name": "Diff grey",
      "scope": "punctuation.definition.separator.diff",
      "settings": {
        "foreground": "#928374"
      }
    },
    {
      "name": "Diff red",
      "scope": "markup.deleted.diff, punctuation.definition.deleted.diff",
      "settings": {
        "foreground": "#c14a4a"
      }
    },
    {
      "name": "Diff orange",
      "scope": "meta.diff.range.context, punctuation.definition.range.diff",
      "settings": {
        "foreground": "#c35e0a"
      }
    },
    {
      "name": "Diff yellow",
      "scope": "meta.diff.header.from-file",
      "settings": {
        "foreground": "#c88d14"
      }
    },
    {
      "name": "Diff green",
      "scope": "markup.inserted.diff, punctuation.definition.inserted.diff",
      "settings": {
        "foreground": "#748420"
      }
    },
    {
      "name": "Diff blue",
      "scope": "markup.changed.diff, punctuation.definition.changed.diff",
      "settings": {
        "foreground": "#945e80"
      }
    },
    {
      "name": "Diff purple",
      "scope": "punctuation.definition.from-file.diff",
      "settings": {
        "foreground": "#45707a"
      }
    },
    {
      "name": "Git red",
      "scope": "entity.name.section.group-title.ini, punctuation.definition.entity.ini",
      "settings": {
        "foreground": "#c14a4a"
      }
    },
    {
      "name": "Git orange",
      "scope": "punctuation.separator.key-value.ini",
      "settings": {
        "foreground": "#c35e0a"
      }
    },
    {
      "name": "Git green",
      "scope": "string.quoted.double.ini, string.quoted.single.ini, punctuation.definition.string.begin.ini, punctuation.definition.string.end.ini",
      "settings": {
        "foreground": "#748420"
      }
    },
    {
      "name": "Git aqua",
      "scope": "keyword.other.definition.ini",
      "settings": {
        "foreground": "#4c7a5d"
      }
    },
    {
      "name": "SQL yellow",
      "scope": "support.function.aggregate.sql",
      "settings": {
        "foreground": "#c88d14"
      }
    },
    {
      "name": "SQL green",
      "scope": "string.quoted.single.sql, punctuation.definition.string.end.sql, punctuation.definition.string.begin.sql, string.quoted.double.sql",
      "settings": {
        "foreground": "#748420"
      }
    },
    {
      "name": "GraphQL yellow",
      "scope": "support.type.graphql",
      "settings": {
        "foreground": "#c88d14"
      }
    },
    {
      "name": "GraphQL blue",
      "scope": "variable.parameter.graphql",
      "settings": {
        "foreground": "#945e80"
      }
    },
    {
      "name": "GraphQL aqua",
      "scope": "constant.character.enum.graphql",
      "settings": {
        "foreground": "#4c7a5d"
      }
    },
    {
      "name": "JSON grey",
      "scope": "punctuation.support.type.property-name.begin.json, punctuation.support.type.property-name.end.json, punctuation.separator.dictionary.key-value.json, punctuation.definition.string.begin.json, punctuation.definition.string.end.json, punctuation.separator.dictionary.pair.json, punctuation.separator.array.json",
      "settings": {
        "foreground": "#928374"
      }
    },
    {
      "name": "JSON orange",
      "scope": "support.type.property-name.json",
      "settings": {
        "foreground": "#c35e0a"
      }
    },
    {
      "name": "JSON green",
      "scope": "string.quoted.double.json",
      "settings": {
        "foreground": "#748420"
      }
    },
    {
      "name": "YAML grey",
      "scope": "punctuation.separator.key-value.mapping.yaml",
      "settings": {
        "foreground": "#928374"
      }
    },
    {
      "name": "YAML green",
      "scope": "string.unquoted.plain.out.yaml, string.quoted.single.yaml, string.quoted.double.yaml, punctuation.definition.string.begin.yaml, punctuation.definition.string.end.yaml, string.unquoted.plain.in.yaml, string.unquoted.block.yaml",
      "settings": {
        "foreground": "#748420"
      }
    },
    {
      "name": "YAML aqua",
      "scope": "punctuation.definition.anchor.yaml, punctuation.definition.block.sequence.item.yaml",
      "settings": {
        "foreground": "#4c7a5d"
      }
    },
    {
      "name": "TOML orange",
      "scope": "keyword.key.toml",
      "settings": {
        "foreground": "#c35e0a"
      }
    },
    {
      "name": "TOML green",
      "scope": "string.quoted.single.basic.line.toml, string.quoted.single.literal.line.toml, punctuation.definition.keyValuePair.toml",
      "settings": {
        "foreground": "#748420"
      }
    },
    {
      "name": "TOML blue",
      "scope": "constant.other.boolean.toml",
      "settings": {
        "foreground": "#945e80"
      }
    },
    {
      "name": "TOML purple",
      "scope": "entity.other.attribute-name.table.toml, punctuation.definition.table.toml, entity.other.attribute-name.table.array.toml, punctuation.definition.table.array.toml",
      "settings": {
        "foreground": "#45707a"
      }
    },
    {
      "name": "Comment",
      "scope": "comment, string.comment, punctuation.definition.comment",
      "settings": {
        "foreground": "#928374",
        "fontStyle": "italic"
      }
    }
  ]
}